adc_tlm_model/wave_system.vcd
$date
     Sep 28, 2017       01:11:02
$end

$version
 SystemC 2.3.1-Accellera --- May  9 2017 11:49:20
$end

$timescale
     1 ps
$end

$scope module SystemC $end
$var real    1  aaaaa  signal       $end
$upscope $end
$enddefinitions  $end

$comment
All initial values are dumped below at time 0 sec = 0 timescale units.
$end

$dumpvars
r0 aaaaa
$end

#3010000
r1243 aaaaa

#5610000
r1263 aaaaa

#8210000
r1284 aaaaa

#10810000
r1304 aaaaa

#13410000
r1324 aaaaa

#16010000
r1344 aaaaa

#18610000
r1365 aaaaa

#21210000
r1385 aaaaa

#23810000
r1405 aaaaa

#26410000
r1425 aaaaa

#29010000
r1445 aaaaa

#31610000
r1465 aaaaa

#34210000
r1485 aaaaa

#36810000
r1505 aaaaa

#39410000
r1524 aaaaa

#42010000
r1544 aaaaa

#44610000
r1564 aaaaa

#47210000
r1583 aaaaa

#49810000
r1603 aaaaa

#52410000
r1622 aaaaa

#55010000
r1641 aaaaa

#57610000
r1660 aaaaa

#60210000
r1679 aaaaa

#62810000
r1698 aaaaa

#65410000
r1717 aaaaa

#68010000
r1736 aaaaa

#70610000
r1754 aaaaa

#73210000
r1773 aaaaa

#75810000
r1791 aaaaa

#78410000
r1809 aaaaa

#81010000
r1827 aaaaa

#83610000
r1845 aaaaa

#86210000
r1862 aaaaa

#88810000
r1880 aaaaa

#91410000
r1897 aaaaa

#94010000
r1914 aaaaa

#96610000
r1931 aaaaa

#99210000
r1948 aaaaa

#101810000
r1965 aaaaa

#104410000
r1981 aaaaa

#107010000
r1997 aaaaa

#109610000
r2013 aaaaa

#112210000
r2029 aaaaa

#114810000
r2044 aaaaa

#117410000
r2060 aaaaa

#120010000
r2075 aaaaa

#122610000
r2090 aaaaa

#125210000
r2104 aaaaa

#127810000
r2119 aaaaa

#130410000
r2133 aaaaa

#133010000
r2147 aaaaa

#135610000
r2161 aaaaa

#138210000
r2174 aaaaa

#140810000
r2188 aaaaa

#143410000
r2201 aaaaa

#146010000
r2213 aaaaa

#148610000
r2226 aaaaa

#151210000
r2238 aaaaa

#153810000
r2250 aaaaa

#156410000
r2262 aaaaa

#159010000
r2273 aaaaa

#161610000
r2284 aaaaa

#164210000
r2295 aaaaa

#166810000
r2305 aaaaa

#169410000
r2316 aaaaa

#172010000
r2326 aaaaa

#174610000
r2335 aaaaa

#177210000
r2345 aaaaa

#179810000
r2354 aaaaa

#182410000
r2363 aaaaa

#185010000
r2371 aaaaa

#187610000
r2380 aaaaa

#190210000
r2387 aaaaa

#192810000
r2395 aaaaa

#195410000
r2402 aaaaa

#198010000
r2409 aaaaa

#200610000
r2416 aaaaa

#203210000
r2422 aaaaa

#205810000
r2428 aaaaa

#208410000
r2434 aaaaa

#211010000
r2440 aaaaa

#213610000
r2445 aaaaa

#216210000
r2449 aaaaa

#218810000
r2454 aaaaa

#221410000
r2458 aaaaa

#224010000
r2462 aaaaa

#226610000
r2465 aaaaa

#229210000
r2468 aaaaa

#231810000
r2471 aaaaa

#234410000
r2474 aaaaa

#237010000
r2476 aaaaa

#239610000
r2478 aaaaa

#242210000
r2479 aaaaa

#244810000
r2480 aaaaa

#247410000
r2481 aaaaa

#250010000
r2482 aaaaa

#257810000
r2481 aaaaa

#260410000
r2480 aaaaa

#263010000
r2479 aaaaa

#265610000
r2478 aaaaa

#268210000
r2476 aaaaa

#270810000
r2474 aaaaa

#273410000
r2471 aaaaa

#276010000
r2469 aaaaa

#278610000
r2466 aaaaa

#281210000
r2462 aaaaa

#283810000
r2458 aaaaa

#286410000
r2454 aaaaa

#289010000
r2450 aaaaa

#291610000
r2445 aaaaa

#294210000
r2440 aaaaa

#296810000
r2435 aaaaa

#299410000
r2429 aaaaa

#302010000
r2423 aaaaa

#304610000
r2417 aaaaa

#307210000
r2410 aaaaa

#309810000
r2403 aaaaa

#312410000
r2396 aaaaa

#315010000
r2388 aaaaa

#317610000
r2380 aaaaa

#320210000
r2372 aaaaa

#322810000
r2363 aaaaa

#325410000
r2355 aaaaa

#328010000
r2346 aaaaa

#330610000
r2336 aaaaa

#333210000
r2327 aaaaa

#335810000
r2317 aaaaa

#338410000
r2306 aaaaa

#341010000
r2296 aaaaa

#343610000
r2285 aaaaa

#346210000
r2274 aaaaa

#348810000
r2262 aaaaa

#351410000
r2251 aaaaa

#354010000
r2239 aaaaa

#356610000
r2227 aaaaa

#359210000
r2214 aaaaa

#361810000
r2202 aaaaa

#364410000
r2189 aaaaa

#367010000
r2175 aaaaa

#369610000
r2162 aaaaa

#372210000
r2148 aaaaa

#374810000
r2134 aaaaa

#377410000
r2120 aaaaa

#380010000
r2106 aaaaa

#382610000
r2091 aaaaa

#385210000
r2076 aaaaa

#387810000
r2061 aaaaa

#390410000
r2046 aaaaa

#393010000
r2030 aaaaa

#395610000
r2014 aaaaa

#398210000
r1998 aaaaa

#400810000
r1982 aaaaa

#403410000
r1966 aaaaa

#406010000
r1949 aaaaa

#408610000
r1933 aaaaa

#411210000
r1916 aaaaa

#413810000
r1899 aaaaa

#416410000
r1881 aaaaa

#419010000
r1864 aaaaa

#421610000
r1846 aaaaa

#424210000
r1828 aaaaa

#426810000
r1810 aaaaa

#429410000
r1792 aaaaa

#432010000
r1774 aaaaa

#434610000
r1756 aaaaa

#437210000
r1737 aaaaa

#439810000
r1719 aaaaa

#442410000
r1700 aaaaa

#445010000
r1681 aaaaa

#447610000
r1662 aaaaa

#450210000
r1643 aaaaa

#452810000
r1624 aaaaa

#455410000
r1604 aaaaa

#458010000
r1585 aaaaa

#460610000
r1565 aaaaa

#463210000
r1546 aaaaa

#465810000
r1526 aaaaa

#468410000
r1506 aaaaa

#471010000
r1486 aaaaa

#473610000
r1466 aaaaa

#476210000
r1446 aaaaa

#478810000
r1426 aaaaa

#481410000
r1406 aaaaa

#484010000
r1386 aaaaa

#486610000
r1366 aaaaa

#489210000
r1346 aaaaa

#491810000
r1326 aaaaa

#494410000
r1305 aaaaa

#497010000
r1285 aaaaa

#499610000
r1265 aaaaa

#502210000
r1245 aaaaa

#504810000
r1224 aaaaa

#507410000
r1204 aaaaa

#510010000
r1184 aaaaa

#512610000
r1164 aaaaa

#515210000
r1143 aaaaa

#517810000
r1123 aaaaa

#520410000
r1103 aaaaa

#523010000
r1083 aaaaa

#525610000
r1063 aaaaa

#528210000
r1043 aaaaa

#530810000
r1023 aaaaa

#533410000
r1003 aaaaa

#536010000
r983 aaaaa

#538610000
r963 aaaaa

#541210000
r943 aaaaa

#543810000
r924 aaaaa

#546410000
r904 aaaaa

#549010000
r885 aaaaa

#551610000
r865 aaaaa

#554210000
r846 aaaaa

#556810000
r827 aaaaa

#559410000
r808 aaaaa

#562010000
r789 aaaaa

#564610000
r770 aaaaa

#567210000
r751 aaaaa

#569810000
r733 aaaaa

#572410000
r714 aaaaa

#575010000
r696 aaaaa

#577610000
r678 aaaaa

#580210000
r660 aaaaa

#582810000
r642 aaaaa

#585410000
r624 aaaaa

#588010000
r607 aaaaa

#590610000
r590 aaaaa

#593210000
r572 aaaaa

#595810000
r555 aaaaa

#598410000
r539 aaaaa

#601010000
r522 aaaaa

#603610000
r505 aaaaa

#606210000
r489 aaaaa

#608810000
r473 aaaaa

#611410000
r457 aaaaa

#614010000
r442 aaaaa

#616610000
r426 aaaaa

#619210000
r411 aaaaa

#621810000
r396 aaaaa

#624410000
r381 aaaaa

#627010000
r367 aaaaa

#629610000
r353 aaaaa

#632210000
r339 aaaaa

#634810000
r325 aaaaa

#637410000
r311 aaaaa

#640010000
r298 aaaaa

#642610000
r285 aaaaa

#645210000
r272 aaaaa

#647810000
r259 aaaaa

#650410000
r247 aaaaa

#653010000
r235 aaaaa

#655610000
r223 aaaaa

#658210000
r212 aaaaa

#660810000
r201 aaaaa

#663410000
r190 aaaaa

#666010000
r179 aaaaa

#668610000
r169 aaaaa

#671210000
r159 aaaaa

#673810000
r149 aaaaa

#676410000
r139 aaaaa

#679010000
r130 aaaaa

#681610000
r121 aaaaa

#684210000
r113 aaaaa

#686810000
r104 aaaaa

#689410000
r96 aaaaa

#692010000
r89 aaaaa

#694610000
r81 aaaaa

#697210000
r74 aaaaa

#699810000
r67 aaaaa

#702410000
r61 aaaaa

#705010000
r55 aaaaa

#707610000
r49 aaaaa

#710210000
r43 aaaaa

#712810000
r38 aaaaa

#715410000
r33 aaaaa

#718010000
r29 aaaaa

#720610000
r25 aaaaa

#723210000
r21 aaaaa

#725810000
r17 aaaaa

#728410000
r14 aaaaa

#731010000
r11 aaaaa

#733610000
r8 aaaaa

#736210000
r6 aaaaa

#738810000
r4 aaaaa

#741410000
r3 aaaaa

#744010000
r1 aaaaa

#746610000
r0 aaaaa

#759610000
r1 aaaaa

#762210000
r2 aaaaa

#764810000
r3 aaaaa

#767410000
r5 aaaaa

#770010000
r7 aaaaa

#772610000
r9 aaaaa

#775210000
r12 aaaaa

#777810000
r15 aaaaa

#780410000
r18 aaaaa

#783010000
r22 aaaaa

#785610000
r26 aaaaa

#788210000
r30 aaaaa

#790810000
r35 aaaaa

#793410000
r40 aaaaa

#796010000
r45 aaaaa

#798610000
r51 aaaaa

#801210000
r57 aaaaa

#803810000
r63 aaaaa

#806410000
r69 aaaaa

#809010000
r76 aaaaa

#811610000
r84 aaaaa

#814210000
r91 aaaaa

#816810000
r99 aaaaa

#819410000
r107 aaaaa

#822010000
r115 aaaaa

#824610000
r124 aaaaa

#827210000
r133 aaaaa

#829810000
r142 aaaaa

#832410000
r152 aaaaa

#835010000
r162 aaaaa

#837610000
r172 aaaaa

#840210000
r182 aaaaa

#842810000
r193 aaaaa

#845410000
r204 aaaaa

#848010000
r215 aaaaa

#850610000
r227 aaaaa

#853210000
r239 aaaaa

#855810000
r251 aaaaa

#858410000
r263 aaaaa

#861010000
r276 aaaaa

#863610000
r289 aaaaa

#866210000
r302 aaaaa

#868810000
r315 aaaaa

#871410000
r329 aaaaa

#874010000
r343 aaaaa

#876610000
r357 aaaaa

#879210000
r371 aaaaa

#881810000
r386 aaaaa

#884410000
r401 aaaaa

#887010000
r416 aaaaa

#889610000
r431 aaaaa

#892210000
r447 aaaaa

#894810000
r462 aaaaa

#897410000
r478 aaaaa

#900010000
r494 aaaaa

#902610000
r511 aaaaa

#905210000
r527 aaaaa

#907810000
r544 aaaaa

#910410000
r561 aaaaa

#913010000
r578 aaaaa

#915610000
r595 aaaaa

#918210000
r612 aaaaa

#920810000
r630 aaaaa

#923410000
r648 aaaaa

#926010000
r665 aaaaa

#928610000
r683 aaaaa

#931210000
r702 aaaaa

#933810000
r720 aaaaa

#936410000
r738 aaaaa

#939010000
r757 aaaaa

#941610000
r776 aaaaa

#944210000
r795 aaaaa

#946810000
r814 aaaaa

#949410000
r833 aaaaa

#952010000
r852 aaaaa

#954610000
r871 aaaaa

#957210000
r891 aaaaa

#959810000
r910 aaaaa

#962410000
r930 aaaaa

#965010000
r949 aaaaa

#967610000
r969 aaaaa

#970210000
r989 aaaaa

#972810000
r1009 aaaaa

#975410000
r1029 aaaaa

#978010000
r1049 aaaaa

#980610000
r1069 aaaaa

#983210000
r1089 aaaaa

#985810000
r1109 aaaaa

#988410000
r1129 aaaaa

#991010000
r1150 aaaaa

#993610000
r1170 aaaaa

#996210000
r1190 aaaaa

#998810000
r1210 aaaaa

#1001410000
r1231 aaaaa

#1004010000
r1251 aaaaa

#1006610000
r1271 aaaaa

#1009210000
r1291 aaaaa

#1011810000
r1312 aaaaa

#1014410000
r1332 aaaaa

#1017010000
r1352 aaaaa

#1019610000
r1372 aaaaa

#1022210000
r1392 aaaaa

#1024810000
r1413 aaaaa

#1027410000
r1433 aaaaa

#1030010000
r1453 aaaaa

#1032610000
r1473 aaaaa

#1035210000
r1492 aaaaa

#1037810000
r1512 aaaaa

#1040410000
r1532 aaaaa

#1043010000
r1552 aaaaa

#1045610000
r1571 aaaaa

#1048210000
r1591 aaaaa

#1050810000
r1610 aaaaa

#1053410000
r1629 aaaaa

#1056010000
r1649 aaaaa

#1058610000
r1668 aaaaa

#1061210000
r1687 aaaaa

#1063810000
r1706 aaaaa

#1066410000
r1724 aaaaa

#1069010000
r1743 aaaaa

#1071610000
r1761 aaaaa

#1074210000
r1780 aaaaa

#1076810000
r1798 aaaaa

#1079410000
r1816 aaaaa

#1082010000
r1834 aaaaa

#1084610000
r1852 aaaaa

#1087210000
r1869 aaaaa

#1089810000
r1887 aaaaa

#1092410000
r1904 aaaaa

#1095010000
r1921 aaaaa

#1097610000
r1938 aaaaa

#1100210000
r1954 aaaaa

#1102810000
r1971 aaaaa

#1105410000
r1987 aaaaa

#1108010000
r2003 aaaaa

#1110610000
r2019 aaaaa

#1113210000
r2035 aaaaa

#1115810000
r2050 aaaaa

#1118410000
r2066 aaaaa

#1121010000
r2081 aaaaa

#1123610000
r2095 aaaaa

#1126210000
r2110 aaaaa

#1128810000
r2124 aaaaa

#1131410000
r2139 aaaaa

#1134010000
r2152 aaaaa

#1136610000
r2166 aaaaa

#1139210000
r2179 aaaaa

#1141810000
r2193 aaaaa

#1144410000
r2205 aaaaa

#1147010000
r2218 aaaaa

#1149610000
r2230 aaaaa

#1152210000
r2243 aaaaa

#1154810000
r2254 aaaaa

#1157410000
r2266 aaaaa

#1160010000
r2277 aaaaa

#1162610000
r2288 aaaaa

#1165210000
r2299 aaaaa

#1167810000
r2309 aaaaa

#1170410000
r2320 aaaaa

#1173010000
r2330 aaaaa

#1175610000
r2339 aaaaa

#1178210000
r2348 aaaaa

#1180810000
r2357 aaaaa

#1183410000
r2366 aaaaa

#1186010000
r2375 aaaaa

#1188610000
r2383 aaaaa

#1191210000
r2390 aaaaa

#1193810000
r2398 aaaaa

#1196410000
r2405 aaaaa

#1199010000
r2412 aaaaa

#1201610000
r2418 aaaaa

#1204210000
r2425 aaaaa

#1206810000
r2431 aaaaa

#1209410000
r2436 aaaaa

#1212010000
r2442 aaaaa

#1214610000
r2447 aaaaa

#1217210000
r2451 aaaaa

#1219810000
r2455 aaaaa

#1222410000
r2459 aaaaa

#1225010000
r2463 aaaaa

#1227610000
r2467 aaaaa

#1230210000
r2470 aaaaa

#1232810000
r2472 aaaaa

#1235410000
r2475 aaaaa

#1238010000
r2477 aaaaa

#1240610000
r2478 aaaaa

#1243210000
r2480 aaaaa

#1245810000
r2481 aaaaa

#1251010000
r2482 aaaaa

#1258810000
r2481 aaaaa

#1261410000
r2480 aaaaa

#1264010000
r2479 aaaaa

#1266610000
r2477 aaaaa

#1269210000
r2475 aaaaa

#1271810000
r2473 aaaaa

#1274410000
r2470 aaaaa

#1277010000
r2467 aaaaa

#1279610000
r2464 aaaaa

#1282210000
r2461 aaaaa

#1284810000
r2457 aaaaa

#1287410000
r2453 aaaaa

#1290010000
r2448 aaaaa

#1292610000
r2443 aaaaa

#1295210000
r2438 aaaaa

#1297810000
r2432 aaaaa

#1300410000
r2427 aaaaa

#1303010000
r2420 aaaaa

#1305610000
r2414 aaaaa

#1308210000
r2407 aaaaa

#1310810000
r2400 aaaaa

#1313410000
r2393 aaaaa

#1316010000
r2385 aaaaa

#1318610000
r2377 aaaaa

#1321210000
r2369 aaaaa

#1323810000
r2360 aaaaa

#1326410000
r2351 aaaaa

#1329010000
r2342 aaaaa

#1331610000
r2333 aaaaa

#1334210000
r2323 aaaaa

#1336810000
r2313 aaaaa

#1339410000
r2302 aaaaa

#1342010000
r2292 aaaaa

#1344610000
r2281 aaaaa

#1347210000
r2269 aaaaa

#1349810000
r2258 aaaaa

#1352410000
r2246 aaaaa

#1355010000
r2234 aaaaa

#1357610000
r2222 aaaaa

#1360210000
r2209 aaaaa

#1362810000
r2197 aaaaa

#1365410000
r2184 aaaaa

#1368010000
r2170 aaaaa

#1370610000
r2157 aaaaa

#1373210000
r2143 aaaaa

#1375810000
r2129 aaaaa

#1378410000
r2115 aaaaa

#1381010000
r2100 aaaaa

#1383610000
r2085 aaaaa

#1386210000
r2070 aaaaa

#1388810000
r2055 aaaaa

#1391410000
r2040 aaaaa

#1394010000
r2024 aaaaa

#1396610000
r2008 aaaaa

#1399210000
r1992 aaaaa

#1401810000
r1976 aaaaa

#1404410000
r1960 aaaaa

#1407010000
r1943 aaaaa

#1409610000
r1926 aaaaa

#1412210000
r1909 aaaaa

#1414810000
r1892 aaaaa

#1417410000
r1875 aaaaa

#1420010000
r1857 aaaaa

#1422610000
r1839 aaaaa

#1425210000
r1822 aaaaa

#1427810000
r1804 aaaaa

#1430410000
r1785 aaaaa

#1433010000
r1767 aaaaa

#1435610000
r1749 aaaaa

#1438210000
r1730 aaaaa

#1440810000
r1711 aaaaa

#1443410000
r1693 aaaaa

#1446010000
r1674 aaaaa

#1448610000
r1655 aaaaa

#1451210000
r1635 aaaaa

#1453810000
r1616 aaaaa

#1456410000
r1597 aaaaa

#1459010000
r1577 aaaaa

#1461610000
r1558 aaaaa

#1464210000
r1538 aaaaa

#1466810000
r1518 aaaaa

#1469410000
r1499 aaaaa

#1472010000
r1479 aaaaa

#1474610000
r1459 aaaaa

#1477210000
r1439 aaaaa

#1479810000
r1419 aaaaa

#1482410000
r1399 aaaaa

#1485010000
r1378 aaaaa

#1487610000
r1358 aaaaa

#1490210000
r1338 aaaaa

#1492810000
r1318 aaaaa

#1495410000
r1298 aaaaa

#1498010000
r1277 aaaaa

#1500610000
r1257 aaaaa

#1503210000
r1237 aaaaa

#1505810000
r1217 aaaaa

#1508410000
r1196 aaaaa

#1511010000
r1176 aaaaa

#1513610000
r1156 aaaaa

#1516210000
r1136 aaaaa

#1518810000
r1115 aaaaa

#1521410000
r1095 aaaaa

#1524010000
r1075 aaaaa

#1526610000
r1055 aaaaa

#1529210000
r1035 aaaaa

#1531810000
r1015 aaaaa

#1534410000
r995 aaaaa

#1537010000
r975 aaaaa

#1539610000
r956 aaaaa

#1542210000
r936 aaaaa

#1544810000
r916 aaaaa

#1547410000
r897 aaaaa

#1550010000
r877 aaaaa

#1552610000
r858 aaaaa

#1555210000
r839 aaaaa

#1557810000
r820 aaaaa

#1560410000
r801 aaaaa

#1563010000
r782 aaaaa

#1565610000
r763 aaaaa

#1568210000
r744 aaaaa

#1570810000
r726 aaaaa

#1573410000
r707 aaaaa

#1576010000
r689 aaaaa

#1578610000
r671 aaaaa

#1581210000
r653 aaaaa

#1583810000
r635 aaaaa

#1586410000
r618 aaaaa

#1589010000
r600 aaaaa

#1591610000
r583 aaaaa

#1594210000
r566 aaaaa

#1596810000
r549 aaaaa

#1599410000
r532 aaaaa

#1602010000
r516 aaaaa

#1604610000
r499 aaaaa

#1607210000
r483 aaaaa

#1609810000
r467 aaaaa

#1612410000
r451 aaaaa

#1615010000
r436 aaaaa

#1617610000
r420 aaaaa

#1620210000
r405 aaaaa

#1622810000
r390 aaaaa

#1625410000
r376 aaaaa

#1628010000
r361 aaaaa

#1630610000
r347 aaaaa

#1633210000
r333 aaaaa

#1635810000
r320 aaaaa

#1638410000
r306 aaaaa

#1641010000
r293 aaaaa

#1643610000
r280 aaaaa

#1646210000
r267 aaaaa

#1648810000
r255 aaaaa

#1651410000
r243 aaaaa

#1654010000
r231 aaaaa

#1656610000
r219 aaaaa

#1659210000
r208 aaaaa

#1661810000
r196 aaaaa

#1664410000
r186 aaaaa

#1667010000
r175 aaaaa

#1669610000
r165 aaaaa

#1672210000
r155 aaaaa

#1674810000
r145 aaaaa

#1677410000
r136 aaaaa

#1680010000
r127 aaaaa

#1682610000
r118 aaaaa

#1685210000
r109 aaaaa

#1687810000
r101 aaaaa

#1690410000
r93 aaaaa

#1693010000
r86 aaaaa

#1695610000
r79 aaaaa

#1698210000
r72 aaaaa

#1700810000
r65 aaaaa

#1703410000
r59 aaaaa

#1706010000
r53 aaaaa

#1708610000
r47 aaaaa

#1711210000
r41 aaaaa

#1713810000
r36 aaaaa

#1716410000
r32 aaaaa

#1719010000
r27 aaaaa

#1721610000
r23 aaaaa

#1724210000
r19 aaaaa

#1726810000
r16 aaaaa

#1729410000
r13 aaaaa

#1732010000
r10 aaaaa

#1734610000
r8 aaaaa

#1737210000
r5 aaaaa

#1739810000
r4 aaaaa

#1742410000
r2 aaaaa

#1745010000
r1 aaaaa

#1747610000
r0 aaaaa

#1760610000
r1 aaaaa

#1763210000
r2 aaaaa

#1765810000
r4 aaaaa

#1768410000
r6 aaaaa

#1771010000
r8 aaaaa

#1773610000
r10 aaaaa

#1776210000
r13 aaaaa

#1778810000
r16 aaaaa

#1781410000
r20 aaaaa

#1784010000
r23 aaaaa

#1786610000
r28 aaaaa

#1789210000
r32 aaaaa

#1791810000
r37 aaaaa

#1794410000
r42 aaaaa

#1797010000
r47 aaaaa

#1799610000
r53 aaaaa

#1802210000
r59 aaaaa

#1804810000
r65 aaaaa

#1807410000
r72 aaaaa

#1810010000
r79 aaaaa

#1812610000
r86 aaaaa

#1815210000
r94 aaaaa

#1817810000
r102 aaaaa

#1820410000
r110 aaaaa

#1823010000
r119 aaaaa

#1825610000
r127 aaaaa

#1828210000
r137 aaaaa

#1830810000
r146 aaaaa

#1833410000
r156 aaaaa

#1836010000
r166 aaaaa

#1838610000
r176 aaaaa

#1841210000
r187 aaaaa

#1843810000
r197 aaaaa

#1846410000
r208 aaaaa

#1849010000
r220 aaaaa

#1851610000
r232 aaaaa

#1854210000
r243 aaaaa

#1856810000
r256 aaaaa

#1859410000
r268 aaaaa

#1862010000
r281 aaaaa

#1864610000
r294 aaaaa

#1867210000
r307 aaaaa

#1869810000
r321 aaaaa

#1872410000
r334 aaaaa

#1875010000
r348 aaaaa

#1877610000
r362 aaaaa

#1880210000
r377 aaaaa

#1882810000
r392 aaaaa

#1885410000
r407 aaaaa

#1888010000
r422 aaaaa

#1890610000
r437 aaaaa

#1893210000
r453 aaaaa

#1895810000
r468 aaaaa

#1898410000
r484 aaaaa

#1901010000
r500 aaaaa

#1903610000
r517 aaaaa

#1906210000
r533 aaaaa

#1908810000
r550 aaaaa

#1911410000
r567 aaaaa

#1914010000
r584 aaaaa

#1916610000
r602 aaaaa

#1919210000
r619 aaaaa

#1921810000
r637 aaaaa

#1924410000
r654 aaaaa

#1927010000
r672 aaaaa

#1929610000
r690 aaaaa

#1932210000
r709 aaaaa

#1934810000
r727 aaaaa

#1937410000
r746 aaaaa

#1940010000
r764 aaaaa

#1942610000
r783 aaaaa

#1945210000
r802 aaaaa

#1947810000
r821 aaaaa

#1950410000
r840 aaaaa

#1953010000
r859 aaaaa

#1955610000
r879 aaaaa

#1958210000
r898 aaaaa

#1960810000
r918 aaaaa

#1963410000
r937 aaaaa

#1966010000
r957 aaaaa

#1968610000
r977 aaaaa

#1971210000
r997 aaaaa

#1973810000
r1017 aaaaa

#1976410000
r1037 aaaaa

#1979010000
r1057 aaaaa

#1981610000
r1077 aaaaa

#1984210000
r1097 aaaaa

#1986810000
r1117 aaaaa

#1989410000
r1137 aaaaa

#1992010000
r1157 aaaaa

#1994610000
r1178 aaaaa

#1997210000
r1198 aaaaa

#1999810000
r1218 aaaaa

#2002410000
r1238 aaaaa

#2005010000
r1259 aaaaa

#2007610000
r1279 aaaaa

#2010210000
r1299 aaaaa

#2012810000
r1319 aaaaa

#2015410000
r1340 aaaaa

#2018010000
r1360 aaaaa

#2020610000
r1380 aaaaa

#2023210000
r1400 aaaaa

#2025810000
r1420 aaaaa

#2028410000
r1440 aaaaa

#2031010000
r1460 aaaaa

#2033610000
r1480 aaaaa

#2036210000
r1500 aaaaa

#2038810000
r1520 aaaaa

#2041410000
r1540 aaaaa

#2044010000
r1559 aaaaa

#2046610000
r1579 aaaaa

#2049210000
r1598 aaaaa

#2051810000
r1618 aaaaa

#2054410000
r1637 aaaaa

#2057010000
r1656 aaaaa

#2059610000
r1675 aaaaa

#2062210000
r1694 aaaaa

#2064810000
r1713 aaaaa

#2067410000
r1732 aaaaa

#2070010000
r1750 aaaaa

#2072610000
r1768 aaaaa

#2075210000
r1787 aaaaa

#2077810000
r1805 aaaaa

#2080410000
r1823 aaaaa

#2083010000
r1841 aaaaa

#2085610000
r1858 aaaaa

#2088210000
r1876 aaaaa

#2090810000
r1893 aaaaa

#2093410000
r1910 aaaaa

#2096010000
r1927 aaaaa

#2098610000
r1944 aaaaa

#2101210000
r1961 aaaaa

#2103810000
r1977 aaaaa

#2106410000
r1993 aaaaa

#2109010000
r2009 aaaaa

#2111610000
r2025 aaaaa

#2114210000
r2041 aaaaa

#2116810000
r2056 aaaaa

#2119410000
r2071 aaaaa

#2122010000
r2086 aaaaa

#2124610000
r2101 aaaaa

#2127210000
r2116 aaaaa

#2129810000
r2130 aaaaa

#2132410000
r2144 aaaaa

#2135010000
r2158 aaaaa

#2137610000
r2171 aaaaa

#2140210000
r2185 aaaaa

#2142810000
r2198 aaaaa

#2145410000
r2210 aaaaa

#2148010000
r2223 aaaaa

#2150610000
r2235 aaaaa

#2153210000
r2247 aaaaa

#2155810000
r2259 aaaaa

#2158410000
r2270 aaaaa

#2161010000
r2282 aaaaa

#2163610000
r2292 aaaaa

#2166210000
r2303 aaaaa

#2168810000
r2313 aaaaa

#2171410000
r2323 aaaaa

#2174010000
r2333 aaaaa

#2176610000
r2343 aaaaa

#2179210000
r2352 aaaaa

#2181810000
r2361 aaaaa

#2184410000
r2369 aaaaa

#2187010000
r2378 aaaaa

#2189610000
r2386 aaaaa

#2192210000
r2393 aaaaa

#2194810000
r2401 aaaaa

#2197410000
r2408 aaaaa

#2200010000
r2414 aaaaa

#2202610000
r2421 aaaaa

#2205210000
r2427 aaaaa

#2207810000
r2433 aaaaa

#2210410000
r2438 aaaaa

#2213010000
r2444 aaaaa

#2215610000
r2448 aaaaa

#2218210000
r2453 aaaaa

#2220810000
r2457 aaaaa

#2223410000
r2461 aaaaa

#2226010000
r2464 aaaaa

#2228610000
r2468 aaaaa

#2231210000
r2471 aaaaa

#2233810000
r2473 aaaaa

#2236410000
r2475 aaaaa

#2239010000
r2477 aaaaa

#2241610000
r2479 aaaaa

#2244210000
r2480 aaaaa

#2246810000
r2481 aaaaa

#2249410000
r2482 aaaaa

#2257210000
r2481 aaaaa

#2262410000
r2480 aaaaa

#2265010000
r2478 aaaaa

#2267610000
r2476 aaaaa

#2270210000
r2474 aaaaa

#2272810000
r2472 aaaaa

#2275410000
r2469 aaaaa

#2278010000
r2466 aaaaa

#2280610000
r2463 aaaaa

#2283210000
r2459 aaaaa

#2285810000
r2455 aaaaa

#2288410000
r2451 aaaaa

#2291010000
r2446 aaaaa

#2293610000
r2441 aaaaa

#2296210000
r2436 aaaaa

#2298810000
r2430 aaaaa

#2301410000
r2424 aaaaa

#2304010000
r2418 aaaaa

#2306610000
r2411 aaaaa

#2309210000
r2405 aaaaa

#2311810000
r2397 aaaaa

#2314410000
r2390 aaaaa

#2317010000
r2382 aaaaa

#2319610000
r2374 aaaaa

#2322210000
r2365 aaaaa

#2324810000
r2357 aaaaa

#2327410000
r2348 aaaaa

#2330010000
r2338 aaaaa

#2332610000
r2329 aaaaa

#2335210000
r2319 aaaaa

#2337810000
r2309 aaaaa

#2340410000
r2298 aaaaa

#2343010000
r2287 aaaaa

#2345610000
r2276 aaaaa

#2348210000
r2265 aaaaa

#2350810000
r2254 aaaaa

#2353410000
r2242 aaaaa

#2356010000
r2230 aaaaa

#2358610000
r2217 aaaaa

#2361210000
r2204 aaaaa

#2363810000
r2192 aaaaa

#2366410000
r2178 aaaaa

#2369010000
r2165 aaaaa

#2371610000
r2151 aaaaa

#2374210000
r2137 aaaaa

#2376810000
r2123 aaaaa

#2379410000
r2109 aaaaa

#2382010000
r2094 aaaaa

#2384610000
r2080 aaaaa

#2387210000
r2064 aaaaa

#2389810000
r2049 aaaaa

#2392410000
r2034 aaaaa

#2395010000
r2018 aaaaa

#2397610000
r2002 aaaaa

#2400210000
r1986 aaaaa

#2402810000
r1970 aaaaa

#2405410000
r1953 aaaaa

#2408010000
r1936 aaaaa

#2410610000
r1920 aaaaa

#2413210000
r1902 aaaaa

#2415810000
r1885 aaaaa

#2418410000
r1868 aaaaa

#2421010000
r1850 aaaaa

#2423610000
r1833 aaaaa

#2426210000
r1815 aaaaa

#2428810000
r1797 aaaaa

#2431410000
r1778 aaaaa

#2434010000
r1760 aaaaa

#2436610000
r1742 aaaaa

#2439210000
r1723 aaaaa

#2441810000
r1704 aaaaa

#2444410000
r1685 aaaaa

#2447010000
r1666 aaaaa

#2449610000
r1647 aaaaa

#2452210000
r1628 aaaaa

#2454810000
r1609 aaaaa

#2457410000
r1589 aaaaa

#2460010000
r1570 aaaaa

#2462610000
r1550 aaaaa

#2465210000
r1530 aaaaa

#2467810000
r1511 aaaaa

#2470410000
r1491 aaaaa

#2473010000
r1471 aaaaa

#2475610000
r1451 aaaaa

#2478210000
r1431 aaaaa

#2480810000
r1411 aaaaa

#2483410000
r1391 aaaaa

#2486010000
r1371 aaaaa

#2488610000
r1351 aaaaa

#2491210000
r1330 aaaaa

#2493810000
r1310 aaaaa

#2496410000
r1290 aaaaa

#2499010000
r1270 aaaaa

#2501610000
r1249 aaaaa

#2504210000
r1229 aaaaa

#2506810000
r1209 aaaaa

#2509410000
r1188 aaaaa

#2512010000
r1168 aaaaa

#2514610000
r1148 aaaaa

#2517210000
r1128 aaaaa

#2519810000
r1108 aaaaa

#2522410000
r1087 aaaaa

#2525010000
r1067 aaaaa

#2527610000
r1047 aaaaa

#2530210000
r1027 aaaaa

#2532810000
r1007 aaaaa

#2535410000
r987 aaaaa

#2538010000
r968 aaaaa

#2540610000
r948 aaaaa

#2543210000
r928 aaaaa

#2545810000
r909 aaaaa

#2548410000
r889 aaaaa

#2551010000
r870 aaaaa

#2553610000
r850 aaaaa

#2556210000
r831 aaaaa

#2558810000
r812 aaaaa

#2561410000
r793 aaaaa

#2564010000
r774 aaaaa

